electeng209-master/VHDL/simulation/qsim/hello.msim.vcd
$comment
	File created using the following command:
		vcd file hello.msim.vcd -direction
$end
$date
	Thu Aug 04 18:28:42 2016
$end
$version
	ModelSim Version 10.1d
$end
$timescale
	1ps
$end
$scope module testing_counter_vlg_vec_tst $end
$var reg 1 ! clear $end
$var reg 1 " clk $end
$var reg 1 # enable $end
$var wire 1 $ cnt [3] $end
$var wire 1 % cnt [2] $end
$var wire 1 & cnt [1] $end
$var wire 1 ' cnt [0] $end
$var wire 1 ( sampler $end
$scope module i1 $end
$var wire 1 ) gnd $end
$var wire 1 * vcc $end
$var wire 1 + unknown $end
$var tri1 1 , devclrn $end
$var tri1 1 - devpor $end
$var tri1 1 . devoe $end
$var wire 1 / cnt[3]~output_o $end
$var wire 1 0 cnt[2]~output_o $end
$var wire 1 1 cnt[1]~output_o $end
$var wire 1 2 cnt[0]~output_o $end
$var wire 1 3 clk~input_o $end
$var wire 1 4 clk~inputclkctrl_outclk $end
$var wire 1 5 clear~input_o $end
$var wire 1 6 inst|temp~5_combout $end
$var wire 1 7 enable~input_o $end
$var wire 1 8 inst|temp[3]~2_combout $end
$var wire 1 9 inst|temp~4_combout $end
$var wire 1 : inst|temp~3_combout $end
$var wire 1 ; inst|temp~0_combout $end
$var wire 1 < inst|temp~1_combout $end
$var wire 1 = inst|temp [3] $end
$var wire 1 > inst|temp [2] $end
$var wire 1 ? inst|temp [1] $end
$var wire 1 @ inst|temp [0] $end
$upscope $end
$upscope $end
$enddefinitions $end
#0
$dumpvars
0!
0"
0#
0'
0&
0%
0$
x(
0)
1*
x+
1,
1-
1.
0/
00
01
02
03
04
05
16
07
08
09
0:
1;
0<
0@
0?
0>
0=
$end
#30000
1"
1#
13
17
14
0(
18
#50000
0#
07
1(
08
#60000
0"
03
04
0(
#90000
1#
1"
17
13
14
1(
18
#110000
0#
07
0(
08
#120000
0"
03
04
1(
#150000
1"
13
14
0(
#180000
0"
03
04
1(
#210000
1#
1"
17
13
14
0(
18
#240000
0#
0"
07
03
04
1(
08
#270000
1"
13
14
0(
#300000
0"
03
04
1(
#330000
1"
13
14
0(
#360000
0"
03
04
1(
#390000
1!
1"
15
13
14
0(
18
06
#420000
0!
0"
05
03
04
1(
08
16
#450000
1"
13
14
0(
#480000
0"
03
04
1(
#510000
1"
13
14
0(
#540000
0"
03
04
1(
#570000
1"
13
14
0(
#600000
0"
03
04
1(
#630000
1"
13
14
0(
#660000
0"
03
04
1(
#690000
1"
13
14
0(
#720000
0"
03
04
1(
#750000
1"
13
14
0(
#780000
0"
03
04
1(
#810000
1"
13
14
0(
#840000
0"
03
04
1(
#870000
1"
13
14
0(
#900000
0"
03
04
1(
#930000
1"
13
14
0(
#960000
0"
03
04
1(
#990000
1"
13
14
0(
